<svg width="32" height="33" viewBox="0 0 32 33" fill="currentColor" fill-opacity="0" xmlns="http://www.w3.org/2000/svg">
<g clip-path="url(#clip0_7608_14888)">
<path d="M26.188 20.6307H5.81018V32.3187H26.188V20.6307Z" stroke="currentColor" stroke-width="1.27982" stroke-linecap="round" stroke-linejoin="round"/>
<path d="M22.3002 24.5181H9.69397V28.4344H22.3002V24.5181Z" stroke="currentColor" stroke-width="1.27982" stroke-linecap="round" stroke-linejoin="round"/>
<path d="M26.1848 7.04232H5.81018V2.95651C6.65166 2.83813 15.9111 -0.025456 26.1848 2.95651V7.04232Z" stroke="currentColor" stroke-width="1.27982" stroke-linecap="round" stroke-linejoin="round"/>
<path d="M8.07532 9.63074V20.6307" stroke="currentColor" stroke-width="1.27982" stroke-linecap="round" stroke-linejoin="round"/>
<path d="M23.9194 9.63074V20.6307" stroke="currentColor" stroke-width="1.27982" stroke-linecap="round" stroke-linejoin="round"/>
<path d="M12.3336 20.2532V19.4213C12.3336 16.8169 19.6606 16.8169 19.6606 19.4213V20.426" stroke="currentColor" stroke-width="1.27982" stroke-linecap="round" stroke-linejoin="round"/>
<path d="M16 15.4046C16.7931 15.4046 17.436 14.7617 17.436 13.9686C17.436 13.1756 16.7931 12.5327 16 12.5327C15.207 12.5327 14.5641 13.1756 14.5641 13.9686C14.5641 14.7617 15.207 15.4046 16 15.4046Z" stroke="currentColor" stroke-width="1.27982" stroke-linecap="round" stroke-linejoin="round"/>
</g>
<defs>
<clipPath id="clip0_7608_14888">
<rect width="31.9954" height="31.9954" fill="white" transform="translate(0 0.963135)"/>
</clipPath>
</defs>
</svg>
