<svg width="32" height="33" viewBox="0 0 32 33" fill="currentColor" fill-opacity="0" xmlns="http://www.w3.org/2000/svg">
<g clip-path="url(#clip0_7608_14894)">
<path d="M31.3562 30.621H0.640625V9.26093H31.3562V27.9974" stroke="currentColor" stroke-width="1.27982" stroke-linecap="round" stroke-linejoin="round"/>
<path d="M24.672 9.25452L23.277 5.07273C23.0994 4.54109 22.7591 4.0787 22.3044 3.75089C21.8498 3.42307 21.3036 3.24638 20.743 3.24579H11.2532C10.6926 3.24638 10.1464 3.42307 9.69174 3.75089C9.23705 4.0787 8.89683 4.54109 8.71914 5.07273L8.10803 6.69489" stroke="currentColor" stroke-width="1.27982" stroke-linecap="round" stroke-linejoin="round"/>
<path d="M15.9985 12.0509C17.9731 12.0535 19.8747 12.7973 21.3271 14.1351C22.7794 15.4729 23.6766 17.3072 23.8411 19.2749C24.0056 21.2427 23.4253 23.2004 22.2153 24.7608C21.0052 26.3211 19.2534 27.3703 17.3066 27.7007C15.3599 28.0311 13.36 27.6186 11.7029 26.5449C10.0457 25.4712 8.85207 23.8145 8.35811 21.9027C7.86416 19.9909 8.10592 17.9633 9.03555 16.2213C9.96518 14.4792 11.5149 13.1496 13.3781 12.4956" stroke="currentColor" stroke-width="1.27982" stroke-linecap="round" stroke-linejoin="round"/>
<path d="M19.6705 23.1853C18.8976 24.0599 17.838 24.6301 16.6823 24.7931C15.5265 24.9562 14.3506 24.7015 13.3659 24.0748C12.3812 23.4482 11.6524 22.4907 11.3106 21.3747C10.9689 20.2587 11.0366 19.0573 11.5016 17.9868C11.9666 16.9162 12.7983 16.0467 13.8472 15.5346C14.896 15.0226 16.0932 14.9016 17.2233 15.1935C18.3534 15.4854 19.3422 16.171 20.012 17.1269C20.6817 18.0828 20.9883 19.2463 20.8768 20.4081" stroke="currentColor" stroke-width="1.27982" stroke-linecap="round" stroke-linejoin="round"/>
</g>
<defs>
<clipPath id="clip0_7608_14894">
<rect width="31.9954" height="31.9954" fill="white" transform="translate(0 0.935669)"/>
</clipPath>
</defs>
</svg>
