<svg width="32" height="33" viewBox="0 0 32 33" fill="currentColor" fill-opacity="0" xmlns="http://www.w3.org/2000/svg">
<g clip-path="url(#clip0_7608_15011)">
<path d="M29.0106 20.2956V6.99188C29.0106 6.62129 28.9377 6.25433 28.7958 5.91195C28.654 5.56957 28.4461 5.25848 28.1841 4.99643C27.9221 4.73439 27.611 4.52652 27.2686 4.3847C26.9262 4.24288 26.5592 4.16989 26.1887 4.16989H5.80759C5.05915 4.16989 4.34136 4.46721 3.81214 4.99643C3.28291 5.52566 2.9856 6.24344 2.9856 6.99188V18.0943" stroke="currentColor" stroke-width="1.27982" stroke-linecap="round" stroke-linejoin="round"/>
<path d="M25.5775 18.0943V7.59341H6.4187V20.2956" stroke="currentColor" stroke-width="1.27982" stroke-linecap="round" stroke-linejoin="round"/>
<path d="M9.53473 24.503H2.8381C2.25539 24.5021 1.69679 24.2703 1.28475 23.8582C0.872716 23.4462 0.640861 22.8876 0.640015 22.3049V20.2956H31.3556V22.3049C31.3547 22.8876 31.1229 23.4462 30.7108 23.8582C30.2988 24.2703 29.7402 24.5021 29.1575 24.503H15.1531V29.6606L9.53473 24.503Z" stroke="currentColor" stroke-width="1.27982" stroke-linecap="round" stroke-linejoin="round"/>
</g>
<defs>
<clipPath id="clip0_7608_15011">
<rect width="31.9954" height="31.9954" fill="white" transform="translate(0 0.91272)"/>
</clipPath>
</defs>
</svg>
