<svg width="32" height="33" viewBox="0 0 32 33" fill="currentColor" fill-opacity="0" xmlns="http://www.w3.org/2000/svg">
<g clip-path="url(#clip0_7608_14975)">
<path d="M23.1481 14.8194H8.92297V30.4332" stroke="currentColor" stroke-width="1.27982" stroke-linecap="round" stroke-linejoin="round"/>
<path d="M8.92297 32.2729H23.1481V16.8383" stroke="currentColor" stroke-width="1.27982" stroke-linecap="round" stroke-linejoin="round"/>
<path d="M16.0344 28.1295L20.2322 25.0323C20.2887 24.9902 20.3305 24.9314 20.3518 24.8643C20.373 24.7971 20.3726 24.7249 20.3506 24.658L18.9076 20.1339C18.8977 20.0991 18.8767 20.0685 18.8478 20.0467C18.8189 20.025 18.7838 20.0132 18.7476 20.0132C18.7115 20.0132 18.6763 20.025 18.6474 20.0467C18.6186 20.0685 18.5976 20.0991 18.5876 20.1339L17.6278 23.1382H14.4282L13.4684 20.1307C13.4609 20.0937 13.441 20.0605 13.4118 20.0366C13.3826 20.0127 13.3461 19.9996 13.3084 19.9996C13.2707 19.9996 13.2342 20.0127 13.205 20.0366C13.1758 20.0605 13.1558 20.0937 13.1484 20.1307L11.715 24.658C11.6907 24.725 11.6894 24.7983 11.7114 24.8661C11.7335 24.9339 11.7775 24.9924 11.8366 25.0323L16.0344 28.1295" stroke="currentColor" stroke-width="1.27982" stroke-linecap="round" stroke-linejoin="round"/>
<path d="M25.4358 4.04655L18.2368 1.6469C18.0194 1.5742 17.7898 1.5451 17.5611 1.56125C17.3324 1.57739 17.1091 1.63848 16.9041 1.74101C16.699 1.84354 16.5162 1.98549 16.3661 2.15875C16.2159 2.33201 16.1014 2.53318 16.0291 2.75074L14.535 7.23009C14.39 7.66883 14.4248 8.14712 14.6317 8.56027C14.8385 8.97343 15.2007 9.2878 15.6388 9.43458L18.0896 10.2505L18.7999 12.4069L20.3997 11.0151L22.8506 11.831C23.2889 11.977 23.7672 11.9431 24.1805 11.7367C24.5938 11.5304 24.9083 11.1684 25.055 10.7304L26.546 6.25103C26.6185 6.03342 26.6473 5.80361 26.6307 5.57484C26.6141 5.34606 26.5524 5.12282 26.4492 4.91796C26.3461 4.7131 26.2034 4.53065 26.0295 4.3811C25.8556 4.23155 25.6538 4.11786 25.4358 4.04655V4.04655Z" stroke="currentColor" stroke-width="1.27982" stroke-linecap="round" stroke-linejoin="round"/>
<path d="M23.737 6.7054L18.093 4.82727" stroke="currentColor" stroke-width="1.27982" stroke-linecap="round" stroke-linejoin="round"/>
<path d="M20.1237 7.84921L17.3896 6.93893" stroke="currentColor" stroke-width="1.27982" stroke-linecap="round" stroke-linejoin="round"/>
<path d="M10.526 14.8194L9.88608 11.4087C9.86761 11.3055 9.82889 11.2071 9.77215 11.1189C9.71541 11.0308 9.64178 10.9548 9.55551 10.8954C9.46925 10.8359 9.37205 10.794 9.26953 10.7723C9.16701 10.7506 9.0612 10.7494 8.95822 10.7688L6.17782 11.3095C5.50912 11.4375 4.99079 8.86185 5.67869 8.72747L8.96462 8.08756C9.34102 8.01334 9.7284 8.01442 10.1044 8.09072C10.4804 8.16702 10.8375 8.31703 11.1552 8.53211C11.4729 8.74718 11.7449 9.02305 11.9554 9.34379C12.1659 9.66453 12.3108 10.0238 12.3817 10.4008L12.8809 12.9253" stroke="currentColor" stroke-width="1.27982" stroke-linecap="round" stroke-linejoin="round"/>
</g>
<defs>
<clipPath id="clip0_7608_14975">
<rect width="31.9954" height="31.9954" fill="white" transform="translate(0 0.917358)"/>
</clipPath>
</defs>
</svg>
