<svg width="32" height="32" viewBox="0 0 32 32" fill="currentColor" fill-opacity="0" xmlns="http://www.w3.org/2000/svg">
<g clip-path="url(#clip0_7608_14908)">
<path d="M13.6161 0.825536C15.1935 0.579151 16.7996 0.579151 18.377 0.825536L19.3177 3.41396C19.4322 3.72117 19.6087 4.0015 19.8364 4.23746C20.064 4.47343 20.3378 4.65997 20.6407 4.78545C20.9436 4.91093 21.2691 4.97266 21.5969 4.9668C21.9247 4.96094 22.2478 4.8876 22.546 4.75137L25.0384 3.58674C26.3291 4.52862 27.4657 5.6652 28.4076 6.95585L27.2429 9.44829C27.1067 9.74651 27.0334 10.0696 27.0275 10.3974C27.0216 10.7252 27.0834 11.0507 27.2088 11.3536C27.3343 11.6565 27.5209 11.9303 27.7568 12.1579C27.9928 12.3855 28.2731 12.5621 28.5803 12.6766L31.1688 13.6173C31.4151 15.1947 31.4151 16.8008 31.1688 18.3782L28.5803 19.3189C28.2731 19.4334 27.9928 19.6099 27.7568 19.8376C27.5209 20.0652 27.3343 20.339 27.2088 20.6419C27.0834 20.9448 27.0216 21.2703 27.0275 21.5981C27.0334 21.9259 27.1067 22.249 27.2429 22.5472L28.4076 25.0428C27.4647 26.3318 26.3282 27.4671 25.0384 28.4088L22.546 27.2441C22.2478 27.1079 21.9247 27.0346 21.5969 27.0287C21.2691 27.0228 20.9436 27.0846 20.6407 27.21C20.3378 27.3355 20.064 27.5221 19.8364 27.758C19.6087 27.994 19.4322 28.2743 19.3177 28.5815L18.9977 29.4902" stroke="currentColor" stroke-width="1.27982" stroke-linecap="round" stroke-linejoin="round"/>
<path d="M18.3779 31.1699C16.8005 31.4163 15.1944 31.4163 13.617 31.1699L12.6763 28.5815C12.5618 28.2743 12.3852 27.994 12.1576 27.758C11.93 27.522 11.6562 27.3355 11.3533 27.21C11.0504 27.0845 10.7249 27.0228 10.3971 27.0287C10.0693 27.0345 9.74618 27.1079 9.44797 27.2441L6.95552 28.4087C5.66572 27.4671 4.52925 26.3317 3.58641 25.0428L4.75104 22.5472C4.89024 22.2494 4.96591 21.9259 4.97323 21.5972C4.98054 21.2686 4.91935 20.9421 4.79354 20.6384C4.66773 20.3347 4.48007 20.0605 4.24249 19.8333C4.00492 19.6062 3.72264 19.4309 3.41364 19.3188L0.825208 18.3782C0.578772 16.8008 0.578772 15.1947 0.825208 13.6173L3.41364 12.6766C3.72085 12.5621 4.00118 12.3855 4.23714 12.1579C4.4731 11.9303 4.65964 11.6565 4.78512 11.3536C4.9106 11.0507 4.97234 10.7252 4.96647 10.3974C4.96061 10.0696 4.88727 9.74648 4.75104 9.44826L3.58641 6.95262C4.52925 5.66371 5.66572 4.52832 6.95552 3.58671L9.44797 4.75134C9.74618 4.88757 10.0693 4.9609 10.3971 4.96677C10.7249 4.97263 11.0504 4.9109 11.3533 4.78542C11.6562 4.65993 11.93 4.4734 12.1576 4.23743C12.3852 4.00147 12.5618 3.72114 12.6763 3.41393L12.9515 2.65564" stroke="currentColor" stroke-width="1.27982" stroke-linecap="round" stroke-linejoin="round"/>
<path d="M15.9983 21.677C19.1348 21.677 21.6775 19.1343 21.6775 15.9978C21.6775 12.8613 19.1348 10.3186 15.9983 10.3186C12.8617 10.3186 10.3191 12.8613 10.3191 15.9978C10.3191 19.1343 12.8617 21.677 15.9983 21.677Z" stroke="currentColor" stroke-width="1.27982" stroke-linecap="round" stroke-linejoin="round"/>
</g>
<defs>
<clipPath id="clip0_7608_14908">
<rect width="31.9954" height="31.9954" fill="white"/>
</clipPath>
</defs>
</svg>
