<?xml version="1.0" encoding="UTF-8"?>
<svg id="a" xmlns="http://www.w3.org/2000/svg" viewBox="0 0 32 32">
  <path d="M3.91,15.5v2.71L.85,15.15l-.71,.71,4.27,4.27,4.27-4.27-.71-.71-3.06,3.06v-2.71c0-6.92,5.63-12.54,12.54-12.54s12.54,5.63,12.54,12.54-5.63,12.54-12.54,12.54h-7.17v1h7.17c7.47,0,13.54-6.08,13.54-13.55S24.92,1.96,17.46,1.96,3.91,8.03,3.91,15.5Z" fill="currentColor" />
  <polygon points="16.96 6.37 16.96 16 24.63 16 24.63 15 17.96 15 17.96 6.37 16.96 6.37" fill="currentColor" />
</svg>