<svg width="32" height="33" viewBox="0 0 32 33" fill="currentColor" fill-opacity="0" xmlns="http://www.w3.org/2000/svg">
<g clip-path="url(#clip0_7608_14970)">
<path d="M9.61783 30.892L10.2801 27.9388C10.4817 27.0292 10.4747 26.0858 10.2597 25.1792C10.0447 24.2727 9.6273 23.4266 9.03871 22.7044C8.42214 21.9427 8.08357 20.9935 8.07885 20.0136C8.04046 15.787 4.3034 16.814 2.45086 13.2529L1.4942 11.8547" stroke="currentColor" stroke-width="1.27982" stroke-linecap="round" stroke-linejoin="round"/>
<path d="M8.70087 3.40161C9.0446 3.67234 9.31881 4.02114 9.50075 4.41906C10.3134 6.18841 13.9385 5.5709 13.9065 5.5645C15.9606 5.5645 16.1462 7.90656 16.0726 7.73059C16.0727 8.04263 16.0056 8.35103 15.8759 8.63482C15.7461 8.9186 15.5568 9.17111 15.3207 9.37515L11.2253 12.8946C10.7232 13.3183 10.3515 13.8756 10.1533 14.5019C9.9551 15.1283 9.93851 15.798 10.1055 16.4333C11.1581 20.6183 18.5106 18.9354 18.5106 23.5683C17.9635 26.5535 15.1927 28.0829 12.4027 31.8519" stroke="currentColor" stroke-width="1.27982" stroke-linecap="round" stroke-linejoin="round"/>
<path d="M20.9577 2.38098L21.828 6.04125C21.9223 6.4379 22.1181 6.80322 22.3962 7.10136C22.6743 7.3995 23.0251 7.62023 23.4142 7.74187C23.8033 7.86352 24.2174 7.8819 24.6158 7.79523C25.0142 7.70856 25.3832 7.5198 25.6866 7.24748L26.928 6.13404" stroke="currentColor" stroke-width="1.27982" stroke-linecap="round" stroke-linejoin="round"/>
<path d="M30.7596 13.0515H26.2355C25.7353 13.0515 25.2426 13.1733 24.7999 13.4062C24.3572 13.6391 23.9778 13.9762 23.6944 14.3883C23.411 14.8005 23.2321 15.2755 23.1731 15.7722C23.1142 16.2689 23.1769 16.7726 23.3559 17.2396C23.3559 17.2396 24.1366 20.3848 24.1334 20.3528C24.8533 22.9956 26.8818 22.1701 26.8818 24.6818V27.7149" stroke="currentColor" stroke-width="1.27982" stroke-linecap="round" stroke-linejoin="round"/>
<path d="M1.4942 11.8548C2.3511 9.40019 3.81712 7.20329 5.75489 5.46995C7.69267 3.73661 10.0388 2.52358 12.5734 1.94453C15.1079 1.36548 17.7481 1.43936 20.2463 2.15925C22.7445 2.87913 25.0191 4.22146 26.8569 6.06045" stroke="currentColor" stroke-width="1.27982" stroke-linecap="round" stroke-linejoin="round"/>
<path d="M24.5316 29.6923C22.2189 31.2377 19.53 32.1261 16.7518 32.2626C13.9737 32.399 11.2106 31.7784 8.75766 30.467C6.3047 29.1556 4.25395 27.2027 2.82434 24.8167C1.39474 22.4307 0.639975 19.7012 0.640625 16.9197C0.640625 16.427 0.663022 15.9375 0.711015 15.4575" stroke="currentColor" stroke-width="1.27982" stroke-linecap="round" stroke-linejoin="round"/>
<path d="M28.9488 8.66168C30.8174 11.5927 31.6365 15.0709 31.2721 18.5278C30.9077 21.9846 29.3814 25.2156 26.9427 27.6925" stroke="currentColor" stroke-width="1.27982" stroke-linecap="round" stroke-linejoin="round"/>
</g>
<defs>
<clipPath id="clip0_7608_14970">
<rect width="31.9954" height="31.9954" fill="white" transform="translate(0 0.921936)"/>
</clipPath>
</defs>
</svg>
