<svg width="32" height="33" viewBox="0 0 32 33" fill="currentColor" fill-opacity="0" xmlns="http://www.w3.org/2000/svg">
<g clip-path="url(#clip0_7608_15005)">
<path d="M27.3901 8.00964H14.272L11.6868 4.77811H0.638794V25.2551C0.643869 26.2565 1.04523 27.2152 1.75511 27.9214C2.465 28.6277 3.42566 29.0242 4.42705 29.0242V29.0242" stroke="#171321" stroke-width="1.27982" stroke-linecap="round" stroke-linejoin="round"/>
<path d="M4.42651 29.0242H27.5656C28.5697 29.0242 29.5328 28.6256 30.2431 27.9158C30.9535 27.2061 31.353 26.2433 31.3538 25.2392V11.1612H8.21157V25.2392C8.21157 26.2431 7.81279 27.2058 7.10295 27.9156C6.39312 28.6255 5.43037 29.0242 4.42651 29.0242V29.0242Z" stroke="#171321" stroke-width="1.27982" stroke-linecap="round" stroke-linejoin="round"/>
<path d="M15.917 22.7819L15.4563 23.7674C15.8296 24.2772 16.2797 24.7262 16.7905 25.0984L17.7759 24.6376C17.894 24.5823 18.0224 24.5522 18.1527 24.5493C18.2831 24.5463 18.4127 24.5706 18.5331 24.6206C18.6536 24.6706 18.7623 24.7452 18.8523 24.8396C18.9422 24.9339 19.0116 25.0461 19.0558 25.1688L19.4237 26.1798C20.0471 26.2758 20.6816 26.2758 21.305 26.1798L21.6794 25.156C21.7236 25.0333 21.7929 24.9211 21.8829 24.8268C21.9729 24.7324 22.0816 24.6578 22.202 24.6078C22.3225 24.5578 22.452 24.5335 22.5824 24.5365C22.7128 24.5394 22.8411 24.5695 22.9592 24.6248L23.9447 25.0856C24.4535 24.7172 24.9024 24.2726 25.2757 23.7674L24.8149 22.7819C24.7596 22.6638 24.7295 22.5355 24.7266 22.4051C24.7236 22.2747 24.7479 22.1452 24.7979 22.0247C24.8479 21.9043 24.9225 21.7956 25.0169 21.7056C25.1112 21.6156 25.2234 21.5463 25.3461 21.5021L26.3699 21.1277C26.4659 20.5043 26.4659 19.8698 26.3699 19.2464L25.3461 18.8753C25.2237 18.8307 25.1119 18.7611 25.0178 18.671C24.9237 18.581 24.8493 18.4723 24.7993 18.352C24.7494 18.2317 24.725 18.1023 24.7277 17.9721C24.7304 17.8419 24.7601 17.7136 24.8149 17.5954L25.2757 16.6132C24.9026 16.1041 24.4537 15.6553 23.9447 15.2822L22.9592 15.7429C22.8413 15.7983 22.7132 15.8286 22.583 15.8317C22.4527 15.8349 22.3233 15.8108 22.2029 15.7611C22.0825 15.7115 21.9737 15.6373 21.8836 15.5432C21.7935 15.4492 21.7239 15.3374 21.6794 15.215L21.305 14.1911C20.6817 14.0935 20.047 14.0935 19.4237 14.1911L19.0526 15.215C19.008 15.3374 18.9385 15.4492 18.8483 15.5432C18.7582 15.6373 18.6495 15.7115 18.5291 15.7611C18.4086 15.8108 18.2792 15.8349 18.149 15.8317C18.0188 15.8286 17.8906 15.7983 17.7727 15.7429L16.7873 15.2822C16.3209 15.6228 15.9051 16.0279 15.5523 16.4852C15.523 16.5242 15.5048 16.5703 15.4997 16.6188C15.4947 16.6673 15.5029 16.7162 15.5235 16.7604L15.9138 17.6018C15.9697 17.7197 16.0004 17.8479 16.0038 17.9782C16.0071 18.1086 15.9832 18.2382 15.9335 18.3588C15.8838 18.4793 15.8093 18.5881 15.715 18.6782C15.6207 18.7682 15.5086 18.8375 15.3859 18.8817L14.362 19.2528C14.2644 19.8761 14.2644 20.5108 14.362 21.1341L15.3859 21.5085C15.5081 21.5524 15.6197 21.6213 15.7138 21.7107C15.8079 21.8002 15.8823 21.9083 15.9322 22.0281C15.9822 22.1479 16.0067 22.2768 16.0041 22.4066C16.0014 22.5364 15.9718 22.6642 15.917 22.7819V22.7819ZM18.3743 20.1903C18.3743 19.7967 18.491 19.4119 18.7097 19.0846C18.9283 18.7574 19.2391 18.5023 19.6028 18.3516C19.9664 18.201 20.3666 18.1616 20.7526 18.2384C21.1387 18.3152 21.4933 18.5047 21.7716 18.7831C22.0499 19.0614 22.2395 19.416 22.3162 19.802C22.393 20.1881 22.3536 20.5882 22.203 20.9519C22.0524 21.3155 21.7973 21.6263 21.47 21.845C21.1427 22.0637 20.758 22.1804 20.3644 22.1804C19.8368 22.1795 19.3311 21.9696 18.9581 21.5966C18.585 21.2235 18.3751 20.7178 18.3743 20.1903V20.1903Z" stroke="#171321" stroke-width="1.27982" stroke-linecap="round" stroke-linejoin="round"/>
</g>
<defs>
<clipPath id="clip0_7608_15005">
<rect width="31.9954" height="31.9954" fill="white" transform="translate(0 0.903442)"/>
</clipPath>
</defs>
</svg>
