<?xml version="1.0" encoding="UTF-8"?>
<svg id="a" xmlns="http://www.w3.org/2000/svg" viewBox="0 0 32 32">
  <path d="M7,8.5c0,1.93,1.57,3.5,3.5,3.5s3.5-1.57,3.5-3.5-1.57-3.5-3.5-3.5-3.5,1.57-3.5,3.5Zm6,0c0,1.38-1.12,2.5-2.5,2.5s-2.5-1.12-2.5-2.5,1.12-2.5,2.5-2.5,2.5,1.12,2.5,2.5Z" fill="currentColor" />
  <path d="M9.5,15h1.5v-1h-1.5c-1.4,0-3.31,0-4.47,2.32l-.54,1.42c-2.17-1.76-3.49-4.43-3.49-7.31C1,5.23,5.23,1,10.43,1c4.23,0,7.97,2.84,9.09,6.91l.96-.27C19.24,3.14,15.1,0,10.43,0,4.68,0,0,4.68,0,10.43c0,4.16,2.47,7.92,6.29,9.57l.4-.92c-.48-.21-.92-.46-1.35-.73l.62-1.63c.86-1.72,2.23-1.72,3.55-1.72Z" fill="currentColor" />
  <path d="M21.5,11c-5.79,0-10.5,4.71-10.5,10.5s4.71,10.5,10.5,10.5,10.5-4.71,10.5-10.5-4.71-10.5-10.5-10.5Zm-5.37,18.33l.82-1.6c.86-1.72,2.23-1.72,3.55-1.72h2c1.32,0,2.69,0,3.55,1.72l.79,1.64c-1.52,1.04-3.36,1.65-5.34,1.65s-3.84-.62-5.37-1.67Zm11.52-.6l-.7-1.45c-1.14-2.28-3.05-2.28-4.45-2.28h-2c-1.4,0-3.31,0-4.45,2.27l-.73,1.43c-2.03-1.74-3.33-4.32-3.33-7.21,0-5.24,4.26-9.5,9.5-9.5s9.5,4.26,9.5,9.5c0,2.9-1.31,5.49-3.35,7.23Z" fill="currentColor" />
  <path d="M21.5,16c-1.93,0-3.5,1.57-3.5,3.5s1.57,3.5,3.5,3.5,3.5-1.57,3.5-3.5-1.57-3.5-3.5-3.5Zm0,6c-1.38,0-2.5-1.12-2.5-2.5s1.12-2.5,2.5-2.5,2.5,1.12,2.5,2.5-1.12,2.5-2.5,2.5Z" fill="currentColor" />
</svg>