<svg viewBox="0 0 40 41" fill="none" xmlns="http://www.w3.org/2000/svg">
  <g clip-path="url(#clip0_173_781)">
    <path d="M20 25.739l5.692-4.136a.445.445 0 00.164-.5l-1.96-6.036a.223.223 0 00-.428 0l-1.3 4h-4.332l-1.304-4a.223.223 0 00-.347-.114.223.223 0 00-.081.114l-1.96 6.036a.444.444 0 00.164.5L20 25.739z" fill="#FC6D26" />
    <path d="M2.148 27.935a.8.8 0 01-.744-.504A20 20 0 0127.368 1.459a.8.8 0 01-.568 1.488A18.4 18.4 0 002.888 26.859a.8.8 0 01-.448 1.04.839.839 0 01-.292.036zM20 40.059a19.83 19.83 0 01-8.76-2 .8.8 0 01.7-1.44 18.197 18.197 0 008.06 1.84 18.4 18.4 0 0016.8-25.916.8.8 0 011.46-.656A20 20 0 0120 40.059z" fill="currentColor" />
    <path d="M6.8 20.859a.8.8 0 01-.8-.8 14 14 0 0123.88-9.892c.488.492.941 1.017 1.356 1.572a.8.8 0 11-1.284.956 12.4 12.4 0 00-18.712-1.396 12.308 12.308 0 00-3.64 8.76.8.8 0 01-.8.8zm13.2 13.2a13.962 13.962 0 01-9.892-4.108 15.04 15.04 0 01-1.38-1.6.8.8 0 111.272-.952c.378.503.793.977 1.24 1.42a12.4 12.4 0 0021.16-8.76.8.8 0 111.6 0 13.971 13.971 0 01-14 14z" fill="currentColor" />
    <path d="M30.604 13.019h-3.512a.8.8 0 110-1.6h2.712V8.703a.8.8 0 011.6 0v3.516a.8.8 0 01-.8.8zM9.372 32.179a.8.8 0 01-.8-.8v-3.516a.8.8 0 01.8-.8h3.516a.8.8 0 110 1.6h-2.716v2.716a.8.8 0 01-.8.8z" fill="currentColor" />
    <path d="M19.829 25.98l-.003-.002-5.696-4.132s0 0 0 0a.744.744 0 01-.27-.832h0l1.96-6.037h0a.524.524 0 01.498-.362.524.524 0 01.494.362s0 0 0 0l1.112 3.455.112.347h3.927l.113-.346 1.123-3.453v-.001a.524.524 0 01.994 0l1.947 6.033.001.003a.745.745 0 01-.27.835h0l-5.692 4.128h0l-.004.002a.3.3 0 01-.174.059.3.3 0 01-.172-.059zm-5.32-5.028l-.113.346.294.213 5.016 3.64.294.213.294-.213 5.016-3.64.294-.213-.112-.345-1.332-4.108-.475-1.465-.476 1.464-.756 2.324s0 0 0 0a.3.3 0 01-.285.207h-4.332a.3.3 0 01-.285-.207s0 0 0 0l-.755-2.328-.476-1.464-.476 1.464-1.335 4.112z" stroke="#000" />
  </g>
  <defs>
    <clipPath id="clip0_173_781">
      <path fill="#fff" transform="translate(0 .059)" d="M0 0h40v40H0z" />
    </clipPath>
  </defs>
</svg>