<svg width="32" height="33" viewBox="0 0 32 33" fill="currentColor" fill-opacity="0" xmlns="http://www.w3.org/2000/svg">
<g clip-path="url(#clip0_7608_14997)">
<path d="M4.414 4.24797C4.41485 3.523 4.70344 2.82801 5.21637 2.31567C5.72931 1.80334 6.42463 1.51556 7.14961 1.51556H27.5851V22.7797" stroke="currentColor" stroke-width="1.27982" stroke-linecap="round" stroke-linejoin="round"/>
<path d="M4.414 28.0749V7.30354" stroke="currentColor" stroke-width="1.27982" stroke-linecap="round" stroke-linejoin="round"/>
<path d="M25.131 30.8073H27.5851V25.3425H7.14961C6.79078 25.3421 6.43539 25.4124 6.10372 25.5493C5.77204 25.6862 5.47059 25.8871 5.21657 26.1406C4.96254 26.394 4.76092 26.695 4.62322 27.0263C4.48551 27.3577 4.41442 27.7129 4.414 28.0717V28.0717C4.414 28.4308 4.48478 28.7864 4.6223 29.1181C4.75982 29.4499 4.96137 29.7512 5.21544 30.005C5.4695 30.2587 5.7711 30.4599 6.10298 30.5971C6.43486 30.7342 6.79051 30.8046 7.14961 30.8041H19.2887" stroke="currentColor" stroke-width="1.27982" stroke-linecap="round" stroke-linejoin="round"/>
<path d="M24.9266 32.2311L22.2038 30.8937L19.481 32.2311V27.755H24.9266V32.2311Z" stroke="currentColor" stroke-width="1.27982" stroke-linecap="round" stroke-linejoin="round"/>
</g>
<defs>
<clipPath id="clip0_7608_14997">
<rect width="31.9954" height="31.9954" fill="white" transform="translate(0 0.87561)"/>
</clipPath>
</defs>
</svg>
