<svg width="32" height="33" viewBox="0 0 32 33" fill="currentColor" fill-opacity="0" xmlns="http://www.w3.org/2000/svg">
<g clip-path="url(#clip0_7608_14977)">
<path d="M0.730774 5.13644C0.730774 4.20301 1.10158 3.30781 1.76161 2.64778C2.42164 1.98775 3.31684 1.61694 4.25027 1.61694H16.4085C17.3419 1.61694 18.2371 1.98775 18.8972 2.64778C19.5572 3.30781 19.928 4.20301 19.928 5.13644V28.813C19.928 29.2752 19.837 29.7329 19.6601 30.1599C19.4832 30.5869 19.224 30.9749 18.8972 31.3017C18.5704 31.6285 18.1824 31.8877 17.7554 32.0646C17.3284 32.2415 16.8707 32.3325 16.4085 32.3325H4.25027C3.78808 32.3325 3.33042 32.2415 2.90341 32.0646C2.47641 31.8877 2.08842 31.6285 1.76161 31.3017C1.43479 30.9749 1.17555 30.5869 0.998679 30.1599C0.821808 29.7329 0.730774 29.2752 0.730774 28.813V8.62393" stroke="currentColor" stroke-width="1.27982" stroke-linecap="round" stroke-linejoin="round"/>
<path d="M19.0157 2.77197L29.8589 10.8956C30.6042 11.4571 31.096 12.2915 31.2262 13.2155C31.3563 14.1395 31.1143 15.0773 30.5532 15.8229L22.1608 26.8933" stroke="currentColor" stroke-width="1.27982" stroke-linecap="round" stroke-linejoin="round"/>
</g>
<defs>
<clipPath id="clip0_7608_14977">
<rect width="31.9954" height="31.9954" fill="white" transform="translate(0 0.977051)"/>
</clipPath>
</defs>
</svg>
