<svg width="32" height="33" viewBox="0 0 32 33" fill="currentColor" fill-opacity="0" xmlns="http://www.w3.org/2000/svg">
<g clip-path="url(#clip0_7608_14961)">
<path d="M10.9878 19.8191L10.4662 20.9326C10.8884 21.5051 11.3943 22.011 11.9668 22.4332L13.0803 21.9116C13.2135 21.8515 13.3576 21.8194 13.5037 21.8172C13.6498 21.815 13.7948 21.8429 13.9298 21.8989C14.0647 21.955 14.1867 22.0382 14.2882 22.1433C14.3898 22.2483 14.4687 22.3731 14.5201 22.5099L14.9392 23.6618C15.6409 23.7722 16.3556 23.7722 17.0573 23.6618L17.4764 22.5099C17.5274 22.3729 17.6061 22.2477 17.7076 22.1424C17.809 22.037 17.9311 21.9537 18.0662 21.8976C18.2012 21.8414 18.3464 21.8137 18.4927 21.8161C18.6389 21.8186 18.7831 21.8511 18.9162 21.9116L20.0297 22.4332C20.6022 22.011 21.108 21.5051 21.5302 20.9326L21.0087 19.8191C20.9486 19.6859 20.9165 19.5418 20.9143 19.3957C20.9121 19.2496 20.9399 19.1046 20.996 18.9696C21.0521 18.8347 21.1352 18.7127 21.2403 18.6112C21.3454 18.5096 21.4702 18.4307 21.607 18.3793L22.7589 17.9602C22.8708 17.2586 22.8708 16.5437 22.7589 15.8421L21.607 15.423C21.4699 15.372 21.3448 15.2933 21.2395 15.1918C21.1341 15.0904 21.0508 14.9683 20.9946 14.8332C20.9385 14.6982 20.9108 14.553 20.9132 14.4067C20.9156 14.2605 20.9481 14.1163 21.0087 13.9832L21.5302 12.8697C21.108 12.2972 20.6022 11.7913 20.0297 11.3692L18.9162 11.8907C18.783 11.9508 18.6389 11.9829 18.4928 11.9851C18.3467 11.9873 18.2017 11.9595 18.0667 11.9034C17.9318 11.8473 17.8098 11.7642 17.7082 11.6591C17.6067 11.554 17.5278 11.4292 17.4764 11.2924L17.0573 10.1405C16.3556 10.0301 15.6409 10.0301 14.9392 10.1405L14.5201 11.2924C14.4691 11.4295 14.3904 11.5546 14.2889 11.6599C14.1875 11.7653 14.0654 11.8486 13.9303 11.9048C13.7953 11.9609 13.6501 11.9886 13.5038 11.9862C13.3576 11.9838 13.2134 11.9512 13.0803 11.8907L11.9668 11.3692C11.3943 11.7913 10.8884 12.2972 10.4662 12.8697L10.9878 13.9832C11.0478 14.1164 11.08 14.2605 11.0822 14.4066C11.0843 14.5527 11.0565 14.6977 11.0005 14.8327C10.9444 14.9676 10.8612 15.0896 10.7561 15.1911C10.651 15.2927 10.5262 15.3716 10.3894 15.423L9.23761 15.8421C9.12563 16.5437 9.12563 17.2586 9.23761 17.9602L10.3894 18.3793C10.5271 18.4295 10.6529 18.5078 10.7588 18.6091C10.8647 18.7104 10.9484 18.8326 11.0046 18.9679C11.0609 19.1032 11.0884 19.2488 11.0855 19.3953C11.0826 19.5418 11.0493 19.6861 10.9878 19.8191V19.8191ZM13.7586 16.9012C13.7586 16.4582 13.8899 16.0252 14.136 15.6569C14.3821 15.2885 14.7319 15.0015 15.1412 14.832C15.5504 14.6624 16.0007 14.6181 16.4352 14.7045C16.8696 14.7909 17.2687 15.0042 17.5819 15.3175C17.8952 15.6307 18.1085 16.0298 18.1949 16.4642C18.2813 16.8987 18.2369 17.349 18.0674 17.7582C17.8979 18.1675 17.6108 18.5173 17.2425 18.7634C16.8742 19.0095 16.4412 19.1408 15.9982 19.1408C15.4042 19.1408 14.8346 18.9049 14.4145 18.4848C13.9945 18.0648 13.7586 17.4952 13.7586 16.9012Z" stroke="currentColor" stroke-width="1.27982" stroke-linecap="round" stroke-linejoin="round"/>
<path d="M2.61981 14.6615C3.10126 11.8026 4.48548 9.17302 6.56971 7.15788C8.65395 5.14273 11.3287 3.84791 14.2021 3.46307" stroke="currentColor" stroke-width="1.27982" stroke-linecap="round" stroke-linejoin="round"/>
<path d="M13.8728 30.2976C11.3661 29.8995 9.02119 28.8064 7.10448 27.1425C5.18776 25.4786 3.77603 23.3105 3.0296 20.8846" stroke="currentColor" stroke-width="1.27982" stroke-linecap="round" stroke-linejoin="round"/>
<path d="M28.9721 20.8622C28.2269 23.2979 26.8116 25.4749 24.888 27.1445C22.9644 28.8141 20.6099 29.909 18.0936 30.3041" stroke="currentColor" stroke-width="1.27982" stroke-linecap="round" stroke-linejoin="round"/>
<path d="M17.785 3.46307C20.7351 3.85713 23.4738 5.21043 25.5789 7.31441C27.6841 9.4184 29.0389 12.1563 29.4346 15.1062" stroke="currentColor" stroke-width="1.27982" stroke-linecap="round" stroke-linejoin="round"/>
<path d="M16.0009 32.2653C16.994 32.2653 17.799 31.4603 17.799 30.4672C17.799 29.4741 16.994 28.6691 16.0009 28.6691C15.0078 28.6691 14.2028 29.4741 14.2028 30.4672C14.2028 31.4603 15.0078 32.2653 16.0009 32.2653Z" stroke="currentColor" stroke-width="1.27982" stroke-linecap="round" stroke-linejoin="round"/>
<path d="M16.0009 5.13965C16.994 5.13965 17.799 4.3346 17.799 3.34152C17.799 2.34844 16.994 1.5434 16.0009 1.5434C15.0078 1.5434 14.2028 2.34844 14.2028 3.34152C14.2028 4.3346 15.0078 5.13965 16.0009 5.13965Z" stroke="currentColor" stroke-width="1.27982" stroke-linecap="round" stroke-linejoin="round"/>
<path d="M2.43857 18.7025C3.43164 18.7025 4.23669 17.8974 4.23669 16.9043C4.23669 15.9112 3.43164 15.1062 2.43857 15.1062C1.44549 15.1062 0.640442 15.9112 0.640442 16.9043C0.640442 17.8974 1.44549 18.7025 2.43857 18.7025Z" stroke="currentColor" stroke-width="1.27982" stroke-linecap="round" stroke-linejoin="round"/>
<path d="M29.5637 18.7025C30.5568 18.7025 31.3618 17.8974 31.3618 16.9043C31.3618 15.9112 30.5568 15.1062 29.5637 15.1062C28.5706 15.1062 27.7656 15.9112 27.7656 16.9043C27.7656 17.8974 28.5706 18.7025 29.5637 18.7025Z" stroke="currentColor" stroke-width="1.27982" stroke-linecap="round" stroke-linejoin="round"/>
</g>
<defs>
<clipPath id="clip0_7608_14961">
<rect width="31.9954" height="31.9954" fill="white" transform="translate(0 0.903442)"/>
</clipPath>
</defs>
</svg>
