<?xml version="1.0" encoding="UTF-8"?>
<svg id="a" xmlns="http://www.w3.org/2000/svg" viewBox="0 0 32 32">
  <path d="M3,9v6.45c-.01,4.83,2.13,9.65,5.58,12.56,1.8,1.52,3.69,2.77,7.1,3.97l.17,.06,.17-.06c3.41-1.2,5.3-2.45,7.1-3.97,3.64-3.07,5.9-7.86,5.9-12.5V4.99h-.51c-8.39,.14-12.06-4.44-12.1-4.49L16-.01l-.4,.52S11.95,5.14,3.5,5h-.5v1h.49c7.44,.12,11.32-3.19,12.51-4.43,1.16,1.21,4.89,4.41,12,4.44V15.5c0,4.35-2.12,8.85-5.54,11.74-1.68,1.42-3.46,2.6-6.62,3.73-3.16-1.13-4.93-2.31-6.62-3.73-3.23-2.73-5.23-7.24-5.23-11.79v-6.45h-.99Z" fill="currentColor" />
  <path d="M18,9h-4v10h4V9Zm-1,9h-2V10h2v8Z" fill="currentColor" />
  <path d="M14,25h4v-4h-4v4Zm1-3h2v2h-2v-2Z" fill="currentColor" />
</svg>