<?xml version="1.0" encoding="UTF-8"?>
<svg id="a" xmlns="http://www.w3.org/2000/svg" viewBox="0 0 32 32">
  <path d="M16.88,.48l-.38-.43-.38,.43S11.97,5.15,3.5,5h-.5v1h.49c7.53,.13,11.78-3.29,13.01-4.47,1.2,1.16,5.27,4.45,12.5,4.48V15.5c0,3.74-1.57,7.57-4.18,10.42l-.33-.55c-1.3-2.17-3.43-3.36-5.99-3.36h-5c-2.56,0-4.68,1.19-5.99,3.36l-.03,.06c-2.18-2.7-3.49-6.32-3.49-9.97v-6.45h-.99v6.44c-.01,4.83,2.13,9.65,5.58,12.56,1.82,1.54,4.17,2.76,7.6,3.97l.17,.06,.17-.06c3.43-1.21,5.77-2.43,7.6-3.97,3.64-3.07,5.9-7.86,5.9-12.5V4.99h-.51c-8.42,.16-12.57-4.46-12.61-4.51Zm-.54,30.49c-3.22-1.15-5.42-2.3-7.12-3.73-.37-.31-.72-.66-1.06-1.01l.21-.35c1.13-1.88,2.9-2.88,5.13-2.88h5c2.23,0,4,1,5.13,2.88l.46,.76c-.21,.2-.41,.41-.63,.6-1.7,1.43-3.9,2.59-7.12,3.73Z" fill="currentColor" />
  <path d="M21,14c0-2.76-2.24-5-5-5s-5,2.24-5,5,2.24,5,5,5,5-2.24,5-5Zm-9,0c0-2.21,1.79-4,4-4s4,1.79,4,4-1.79,4-4,4-4-1.79-4-4Z" fill="currentColor" />
</svg>