<svg width="33" height="33" viewBox="0 0 33 33" fill="currentColor" fill-opacity="0" xmlns="http://www.w3.org/2000/svg">
<g clip-path="url(#clip0_7608_14922)">
<path d="M8.10901 30.6812H25.8729V14.9938H29.5875L32.3487 7.81409L24.9226 4.2594" stroke="currentColor" stroke-width="1.27982" stroke-linecap="round" stroke-linejoin="round"/>
<path d="M22.893 3.28674C19.1133 4.84159 14.8727 4.84159 11.0931 3.28674V3.28674L1.63522 7.81409L4.39642 14.9939H8.11109V28.4063" stroke="currentColor" stroke-width="1.27982" stroke-linecap="round" stroke-linejoin="round"/>
<path d="M22.8915 3.28674C22.1684 9.58023 11.8147 9.58983 11.0916 3.28674" stroke="currentColor" stroke-width="1.27982" stroke-linecap="round" stroke-linejoin="round"/>
<path d="M16.9918 21.0601L21.2791 17.9438C21.3365 17.9016 21.3791 17.8424 21.4009 17.7746C21.4227 17.7069 21.4226 17.634 21.4007 17.5662L19.9257 13.0229C19.9141 12.9898 19.8924 12.9611 19.8638 12.9408C19.8351 12.9205 19.8009 12.9096 19.7658 12.9096C19.7306 12.9096 19.6964 12.9205 19.6677 12.9408C19.6391 12.9611 19.6174 12.9898 19.6058 13.0229L18.6235 16.0433H15.3632L14.3809 13.0197C14.3693 12.9866 14.3476 12.9579 14.319 12.9376C14.2903 12.9173 14.2561 12.9064 14.221 12.9064C14.1858 12.9064 14.1516 12.9173 14.1229 12.9376C14.0943 12.9579 14.0726 12.9866 14.061 13.0197L12.5828 17.5694C12.5616 17.6367 12.5619 17.709 12.5837 17.7761C12.6055 17.8432 12.6477 17.9018 12.7044 17.9438L16.9918 21.0601Z" stroke="currentColor" stroke-width="1.27982" stroke-linecap="round" stroke-linejoin="round"/>
</g>
<defs>
<clipPath id="clip0_7608_14922">
<rect width="31.9954" height="31.9954" fill="white" transform="translate(0.995361 0.986206)"/>
</clipPath>
</defs>
</svg>
