<svg width="33" height="33" viewBox="0 0 33 33" fill="currentColor" fill-opacity="0" xmlns="http://www.w3.org/2000/svg">
<g clip-path="url(#clip0_7608_14986)">
<path d="M27.1657 28.966C27.1657 21.5527 21.6945 19.2554 19.8643 18.6955C19.6961 18.6436 19.5486 18.5398 19.4428 18.399C19.3371 18.2582 19.2786 18.0876 19.2756 17.9116V17.87C19.2731 17.713 19.3155 17.5587 19.3976 17.4249C19.4798 17.2912 19.5984 17.1836 19.7395 17.1149C21.0666 16.4981 22.1439 15.4476 22.7939 14.1366C23.4439 12.8255 23.6278 11.3321 23.3153 9.90247C23.0028 8.47286 22.2126 7.19238 21.0748 6.27207C19.9371 5.35177 18.5197 4.84656 17.0564 4.83973C15.593 4.8329 14.171 5.32484 13.0247 6.23448C11.8785 7.14412 11.0763 8.41716 10.7505 9.84379C10.4246 11.2704 10.5946 12.7655 11.2323 14.0826C11.8701 15.3997 12.9375 16.4602 14.2587 17.0893C14.4084 17.1569 14.5359 17.2655 14.6265 17.4025C14.7171 17.5395 14.7671 17.6994 14.7706 17.8636V17.9116C14.772 18.0879 14.7172 18.2602 14.6143 18.4034C14.5113 18.5466 14.3655 18.6533 14.1979 18.7083C12.3838 19.3002 6.88058 21.6934 6.88058 28.9692C13.589 30.169 20.4572 30.169 27.1657 28.9692V28.966Z" stroke="currentColor" stroke-width="1.27982" stroke-linecap="round" stroke-linejoin="round"/>
<path d="M28.62 24.3746C29.8678 24.253 31.1114 24.0813 32.3507 23.8595C32.3507 17.7804 27.8713 15.883 26.3515 15.4223C26.2137 15.3804 26.0927 15.2959 26.0059 15.1809C25.9191 15.066 25.871 14.9264 25.8684 14.7824V14.7472C25.8664 14.6187 25.9008 14.4922 25.9676 14.3823C26.0344 14.2725 26.1309 14.1838 26.246 14.1265C27.4761 13.5785 28.4506 12.5816 28.9706 11.3394C29.4906 10.0972 29.5169 8.70334 29.044 7.44243C28.5712 6.18152 27.6349 5.14863 26.4263 4.55465C25.2178 3.96067 23.828 3.85038 22.5409 4.24632" stroke="currentColor" stroke-width="1.27982" stroke-linecap="round" stroke-linejoin="round"/>
<path d="M5.15478 24.3554C3.97415 24.2339 2.79352 24.0707 1.63528 23.8595C1.63528 17.7804 6.13064 15.8831 7.63442 15.4223C7.77225 15.3804 7.89325 15.2959 7.98005 15.1809C8.06685 15.066 8.11499 14.9265 8.11755 14.7824V14.7472C8.11957 14.6187 8.08519 14.4922 8.01839 14.3824C7.95158 14.2725 7.85507 14.1838 7.74 14.1265C6.48116 13.5808 5.48382 12.567 4.95883 11.2994C4.43383 10.0318 4.42232 8.60971 4.92671 7.33376C5.43111 6.05781 6.41189 5.02799 7.66174 4.46199C8.91158 3.89599 10.3325 3.83816 11.6242 4.30073" stroke="currentColor" stroke-width="1.27982" stroke-linecap="round" stroke-linejoin="round"/>
</g>
<defs>
<clipPath id="clip0_7608_14986">
<rect width="31.9954" height="31.9954" fill="white" transform="translate(0.995361 0.953979)"/>
</clipPath>
</defs>
</svg>
