<svg width="33" height="33" viewBox="0 0 33 33" fill="currentColor" fill-opacity="0" xmlns="http://www.w3.org/2000/svg">
<g clip-path="url(#clip0_7608_14932)">
<path d="M13.8342 11.4713C31.4604 1.29361 37.9907 12.1113 20.1501 22.4138C2.52382 32.5915 -4.00644 21.7707 13.8342 11.4713Z" stroke="currentColor" stroke-width="1.27982" stroke-linecap="round" stroke-linejoin="round"/>
<path d="M20.1509 11.4713C37.7803 21.6491 31.6692 32.7131 13.835 22.4138C-3.80407 12.236 2.31344 1.17203 20.1509 11.4713Z" stroke="currentColor" stroke-width="1.27982" stroke-linecap="round" stroke-linejoin="round"/>
<path d="M23.3121 16.9425C23.3121 37.298 10.674 37.5411 10.674 16.9425C10.674 -3.41295 23.3121 -3.65611 23.3121 16.9425Z" stroke="currentColor" stroke-width="1.27982" stroke-linecap="round" stroke-linejoin="round"/>
<path d="M16.9959 20.3085C24.5436 16.2259 18.3109 12.3096 16.9959 15.5412C15.6809 12.3256 9.44816 16.2259 16.9959 20.3085Z" stroke="currentColor" stroke-width="1.27982" stroke-linecap="round" stroke-linejoin="round"/>
</g>
<defs>
<clipPath id="clip0_7608_14932">
<rect width="31.9954" height="31.9954" fill="white" transform="translate(0.995361 0.944824)"/>
</clipPath>
</defs>
</svg>
