<svg width="33" height="33" viewBox="0 0 33 33" fill="currentColor" fill-opacity="0" xmlns="http://www.w3.org/2000/svg">
<g clip-path="url(#clip0_7608_14955)">
<path d="M4.51374 2.44775C3.75003 2.44775 3.01759 2.75114 2.47757 3.29116C1.93754 3.83119 1.63416 4.56362 1.63416 5.32734V22.0897C1.63416 22.8534 1.93754 23.5859 2.47757 24.1259C3.01759 24.6659 3.75003 24.9693 4.51374 24.9693H6.22549V31.4068L12.9381 24.9725H21.2761C22.0398 24.9725 22.7723 24.6691 23.3123 24.1291C23.8523 23.5891 24.1557 22.8566 24.1557 22.0929V16.9289L32.3497 22.6688V4.2395L24.1589 10.3186V5.33054C24.1589 4.56682 23.8555 3.83439 23.3155 3.29436C22.7755 2.75434 22.043 2.45095 21.2793 2.45095H7.68128" stroke="currentColor" stroke-width="1.27982" stroke-linecap="round" stroke-linejoin="round"/>
<path d="M18.1815 18.0391C17.1155 19.3416 15.6066 20.2054 13.9436 20.4652C12.2806 20.7249 10.5802 20.3625 9.16767 19.4471C7.75516 18.5317 6.72972 17.1277 6.28752 15.5037C5.84532 13.8796 6.01742 12.1495 6.77087 10.6444C7.52433 9.13927 8.80625 7.96477 10.3714 7.34558C11.9366 6.72639 13.6751 6.70599 15.2543 7.28828C16.8336 7.87056 18.1427 9.01465 18.9313 10.5017C19.7198 11.9887 19.9325 13.7143 19.5285 15.3483" stroke="currentColor" stroke-width="1.27982" stroke-linecap="round" stroke-linejoin="round"/>
</g>
<defs>
<clipPath id="clip0_7608_14955">
<rect width="31.9954" height="31.9954" fill="white" transform="translate(0.995361 0.931091)"/>
</clipPath>
</defs>
</svg>
