<svg viewBox="0 0 32 32" fill="currentColor" xmlns="http://www.w3.org/2000/svg">
<path d="M32 28H0V22H32V28ZM2 26H30V24H2V26Z"/>
<path d="M30 23H28V9C28 7.34 26.66 6 25 6H4V19H2V4H25C27.76 4 30 6.24 30 9V23Z"/>
<path d="M12 18.8V9.26001L19.94 13.88L12 18.8ZM14 12.74V15.2L16.06 13.92L14 12.72V12.74Z"/>
</svg>
