[
    {
        "name": "Accordion",
        "description": "An accordion is used to show and hide content.",
        "url": "/?path=/story/components-accordion--default"
    },
    {
        "name": "Breadcrumb",
        "description": "A breadcrumb is a navigational element to help a user understand the current location in the application as well as content structure and hierarchy.",
        "url": "/?path=/story/components-breadcrumb--default"
    },
    {
        "name": "Buttons",
        "description": "A button component can be used to indicate a distinct action and execute a function, or can be used as a link. They can be expressed through text, icon, or a combination of the two and are supported by the variant.",
        "url": "/?path=/story/components-buttons--default"
    },
    {
        "name": "Card",
        "description": "A card displays a single group of content within a set of similar groups.",
        "url": "/?path=/story/components-card--default"
    },
    {
        "name": "Dropdown",
        "description": "A dropdown contains a panel of options to choose from.",
        "url": "/?path=/story/components-dropdown--no-props"
    },
    {
        "name": "HorizontalRule",
        "description": "A horizontal rule is used to divide a document into separate sections.",
        "url": "/?path=/story/components-horizontalrule--default"
    },
    {
        "name": "Icon",
        "description": "The icon component allows you to choose from our Product or Marketing icon image library as well as set their size and color.",
        "url": "/?path=/story/components-icon--default"
    },
    {
        "name": "Link",
        "description": "A hyperlink component that takes care of applying our styles for you.",
        "url": "/?path=/story/components-link--default"
    },
    {
        "name": "Loading",
        "description": "A spinner or loading bar is an animated element that appears to indicate that loading is in progress.",
        "url": "/?path=/story/components-loading--default"
    },
    {
        "name": "Radio",
        "description": "A radio button typically represents a single option in a group of related choices.",
        "url": "/?path=/story/components-radio--default"
    },
    {
        "name": "RadioGroup",
        "description": "A composite of multiple radio buttons.",
        "url": "/?path=/story/components-radiogroup--default"
    },
    {
        "name": "Toggle",
        "description": "A toggle is a visual switch which acts as a boolean.",
        "url": "/?path=/story/components-toggle--default"
    },
    {
        "name": "Tooltip",
        "description": "A tooltip is used to provide additional, useful information about the referring element.",
        "url": "/?path=/story/components-tooltip--default"
    },
    {
        "name": "Typography",
        "description": "A component that takes care of applying our typography styles for you.",
        "url": "/?path=/story/components-typography--default"
    }
]